UCR Data Center - SSCPOLI302: Analysis of a legislative dossier (draft)
…
Attendee characteristics

With our improved dataset we can also do some additional analyses by looking at the nature of the actors that were involved.

First, let’s look at who the attendees are and how many meetings they each attended.

# count how many meetings each attendee attended (using the fixed names)
meetings |> 
  count(fixed_names, sort = TRUE)

# A tibble: 372 × 2
   fixed_names                                                                 n
   <chr>                                                                   <int>
 1 McDonald’s Global Franchising Limited (MGFL) - Transparency Register N…    20
 2 European Paper Packaging Alliance (EPPA) - Transparency Register Numbe…    18
 3 Huhtamäki Oyj                                                              18
 4 European Environmental Bureau (EEB) - Transparency Register Number: 06…    17
 5 Nestlé S.A.                                                                17
 6 The European Organisation for Packaging and the Environment (EUROPEN) …    15
 7 The Coca-Cola Company                                                      14
 8 Zero Waste Europe (ZWE) - Transparency Register Number: 47806848200-34     14
 9 FoodDrinkEurope - Transparency Register Number: 75818824519-45             13
10 Seda International Packaging Group                                         13
# ℹ 362 more rows
…
