UCR Data Center - Working with text
…
clean_text <- raw_text |> 
  as_tibble() |> 
  unnest_tokens(output = word, input = value, token = "words")

In the clean_text tibble we now have one variable called word, which in each row contains one word from the original text, in the order they initially appeared. By default, unnest_tokens() also cleans the text by converting all letters to lowercase and removing punctuation.

Counting word frequencies

The simplest method of getting a quick overview of a long text is to count the number of times each word appears in the text, and looking at what the most frequent words are. We can get these word frequencies using the count() function, specifying which variable we want to count.

clean_text |> 
  count(word)

# A tibble: 60 × 2
   word         n
   <chr>    <int>
 1 academic     1
 2 aiding       1
 3 analysis     1
 4 analyze      1
 5 and          5
 6 by           1
 7 can          2
 8 content      1
 9 customer     1
10 data         1
# ℹ 50 more rows

The count() function has an argument sort, which allows us to sort the output from most frequent to least frequent words.

clean_text |> 
  count(word, sort = TRUE)

# A tibble: 60 × 2
   word          n
   <chr>     <int>
 1 and           5
 2 can           2
 3 sentiment     2
 4 trends        2
 5 academic      1
 6 aiding        1
 7 analysis      1
 8 analyze       1
 9 by            1
10 content       1
# ℹ 50 more rows
…
