UCR Data Center - Simple Assignment SCIENVI201
…
A dataset can be imported into RStudio with the function read_csv(), where in parentheses and quotation marks there is the directory to our data set location. Additionally, in order to save this file in our Rstudio environment (upper right window), we need to assign the file to an object with the assign operator <-.

data <- read_csv("https://raw.githubusercontent.com/ucrdatacenter/projects/main/SCIENVI201/2023h1/ass1/Taxonomy.csv")

This data set is retrieved from Global Biodiversity Information Facility (gbif.org), a publicly available database that gathers information on species occurrences. To view your data you can either use the function View() with the name of the data in the parentheses or you can simply click on your data in your environment (upper right window). The data is organized in 2 dimensions; rows (observations) and columns (variables). This type of data structure is called dataframe or datatable.

This particular dataframe, called data, stores information on the taxonomy and the occurrence time (month, year) of often occurring mammals in the Netherlands.

STEP III - Data Manipulation

Now, we would like to visualize number of animals seen over the period of six years. Therefore, what we can do is to count the number of observations (rows) with unique genus values per unique year values. This can be done with the following, the first argument is the name of the dataframe where our variables are stored. The next two are the variables which number of observations we want to count up.

count(data, year, genus)

# A tibble: 49 × 3
    year genus            n
   <dbl> <chr>        <int>
 1  2016 Capreolus    16739
 2  2016 Castor        2523
 3  2016 Lepus        11040
 4  2016 Ondatra      70581
 5  2016 Oryctolagus   6486
 6  2016 Pipistrellus 20531
 7  2016 Vulpes        4846
 8  2017 Capreolus    17375
 9  2017 Castor        2681
10  2017 Lepus        12762
# ℹ 39 more rows
…
