UCR Data Center - SSCECON207 workshop I:Introduction to R and ggplot
…
If you want to plot these variables on a single figure, it helps to turn the data into long format.

Currently each row of the data corresponds to one year, and three columns show the values of three variables; the data is in wide format. In long format you would have three rows corresponding to one year, a single column of values, and a column specifying which component of GDP that value corresponds to.

You can convert between these two forms using the pivot_longer() and pivot_wider() functions. Below is an example of using pivot_longer(). If you need more help on the function arguments, the help-files of the function provide a good explanation. You can access these help-files by running ?pivot_longer() and ?pivot_wider().

data_US %>% 
  select(year, consumption, investment, govt_spending) %>% 
  pivot_longer(cols = -year, names_to = "component", values_to = "value") # convert to long format

# A tibble: 24 × 3
    year component      value
   <dbl> <chr>          <dbl>
 1  2006 consumption    2.59 
 2  2006 investment     3.06 
 3  2006 govt_spending  1.22 
 4  2007 consumption    2.28 
 5  2007 investment    -1.62 
 6  2007 govt_spending  1.60 
 7  2008 consumption    0.576
 8  2008 investment    -6.21 
 9  2008 govt_spending  2.45 
10  2009 consumption   -0.251
# ℹ 14 more rows
…
